\relax 
\catcode `:\active 
\catcode `;\active 
\catcode `!\active 
\catcode `?\active 
\babel@aux{french}{}
\@writefile{toc}{\contentsline {chapter}{\numberline {1}Début}{1}}
\@writefile{lof}{\addvspace {10\p@ }}
\@writefile{lot}{\addvspace {10\p@ }}
\@writefile{toc}{\contentsline {paragraph}{Para1}{1}}
\@writefile{toc}{\contentsline {section}{\numberline {1.1}Section 1}{1}}
\@writefile{toc}{\contentsline {subsection}{\numberline {1.1.1}Sous-section 1}{1}}
\@writefile{lot}{\contentsline {table}{\numberline {1.1}{\ignorespaces Besoins Fonctionnels\relax }}{1}}
\@writefile{lof}{\contentsline {figure}{\numberline {1.1}{\ignorespaces boite\relax }}{2}}
